{
    "key": "group_5d13275225c6e",
    "title": "Billing Information",
    "fields": [
        {
            "key": "field_5d132773bd772",
            "label": "Use the same Contact information as Billing information?",
            "name": "use_the_same_contact",
            "type": "true_false",
            "instructions": "",
            "required": 0,
            "conditional_logic": 0,
            "wrapper": {
                "width": "",
                "class": "",
                "id": ""
            },
            "message": "",
            "default_value": 0,
            "ui": 1,
            "ui_on_text": "",
            "ui_off_text": ""
        },
        {
            "key": "field_5d13275238893",
            "label": "Name",
            "name": "bill_name",
            "type": "text",
            "instructions": "",
            "required": 0,
            "conditional_logic": [
                [
                    {
                        "field": "field_5d132773bd772",
                        "operator": "!=",
                        "value": "1"
                    }
                ]
            ],
            "wrapper": {
                "width": "",
                "class": "",
                "id": ""
            },
            "default_value": "",
            "placeholder": "",
            "prepend": "",
            "append": "",
            "maxlength": ""
        },
        {
            "key": "field_5d132752388d6",
            "label": "Company",
            "name": "bill_company",
            "type": "text",
            "instructions": "",
            "required": 0,
            "conditional_logic": [
                [
                    {
                        "field": "field_5d132773bd772",
                        "operator": "!=",
                        "value": "1"
                    }
                ]
            ],
            "wrapper": {
                "width": "",
                "class": "",
                "id": ""
            },
            "default_value": "",
            "placeholder": "",
            "prepend": "",
            "append": "",
            "maxlength": ""
        },
        {
            "key": "field_5d13275238916",
            "label": "Address",
            "name": "bill_address",
            "type": "text",
            "instructions": "",
            "required": 0,
            "conditional_logic": [
                [
                    {
                        "field": "field_5d132773bd772",
                        "operator": "!=",
                        "value": "1"
                    }
                ]
            ],
            "wrapper": {
                "width": "",
                "class": "",
                "id": ""
            },
            "default_value": "",
            "placeholder": "",
            "prepend": "",
            "append": "",
            "maxlength": ""
        },
        {
            "key": "field_5d13275238957",
            "label": "City",
            "name": "bill_city",
            "type": "text",
            "instructions": "",
            "required": 0,
            "conditional_logic": [
                [
                    {
                        "field": "field_5d132773bd772",
                        "operator": "!=",
                        "value": "1"
                    }
                ]
            ],
            "wrapper": {
                "width": "",
                "class": "",
                "id": ""
            },
            "default_value": "",
            "placeholder": "",
            "prepend": "",
            "append": "",
            "maxlength": ""
        },
        {
            "key": "field_5d13275238996",
            "label": "State",
            "name": "bill_state",
            "type": "select",
            "instructions": "",
            "required": 0,
            "conditional_logic": [
                [
                    {
                        "field": "field_5d132773bd772",
                        "operator": "!=",
                        "value": "1"
                    }
                ]
            ],
            "wrapper": {
                "width": "",
                "class": "",
                "id": ""
            },
            "choices": {
                "AL": "Alabama",
                "AK": "Alaska",
                "AZ": "Arizona",
                "AR": "Arkansas",
                "CA": "California",
                "CO": "Colorado",
                "CT": "Connecticut",
                "DE": "Delaware",
                "DC": "District Of Columbia",
                "FL": "Florida",
                "GA": "Georgia",
                "HI": "Hawaii",
                "ID": "Idaho",
                "IL": "Illinois",
                "IN": "Indiana",
                "IA": "Iowa",
                "KS": "Kansas",
                "KY": "Kentucky",
                "LA": "Louisiana",
                "ME": "Maine",
                "MD": "Maryland",
                "MA": "Massachusetts",
                "MI": "Michigan",
                "MN": "Minnesota",
                "MS": "Mississippi",
                "MO": "Missouri",
                "MT": "Montana",
                "NE": "Nebraska",
                "NV": "Nevada",
                "NH": "New Hampshire",
                "NJ": "New Jersey",
                "NM": "New Mexico",
                "NY": "New York",
                "NC": "North Carolina",
                "ND": "North Dakota",
                "OH": "Ohio",
                "OK": "Oklahoma",
                "OR": "Oregon",
                "PA": "Pennsylvania",
                "RI": "Rhode Island",
                "SC": "South Carolina",
                "SD": "South Dakota",
                "TN": "Tennessee",
                "TX": "Texas",
                "UT": "Utah",
                "VT": "Vermont",
                "VA": "Virginia",
                "WA": "Washington",
                "WV": "West Virginia",
                "WI": "Wisconsin",
                "WY": "Wyoming"
            },
            "default_value": [],
            "allow_null": 0,
            "multiple": 0,
            "ui": 0,
            "return_format": "value",
            "ajax": 0,
            "placeholder": ""
        },
        {
            "key": "field_5d132752389d7",
            "label": "Zip",
            "name": "bill_zip",
            "type": "text",
            "instructions": "",
            "required": 0,
            "conditional_logic": [
                [
                    {
                        "field": "field_5d132773bd772",
                        "operator": "!=",
                        "value": "1"
                    }
                ]
            ],
            "wrapper": {
                "width": "",
                "class": "",
                "id": ""
            },
            "default_value": "",
            "placeholder": "",
            "prepend": "",
            "append": "",
            "maxlength": ""
        },
        {
            "key": "field_5d13275238a16",
            "label": "Phone",
            "name": "bill_phone",
            "type": "text",
            "instructions": "",
            "required": 0,
            "conditional_logic": [
                [
                    {
                        "field": "field_5d132773bd772",
                        "operator": "!=",
                        "value": "1"
                    }
                ]
            ],
            "wrapper": {
                "width": "",
                "class": "",
                "id": ""
            },
            "default_value": "",
            "placeholder": "",
            "prepend": "",
            "append": "",
            "maxlength": ""
        },
        {
            "key": "field_5d13275238a55",
            "label": "Email",
            "name": "bill_email",
            "type": "email",
            "instructions": "",
            "required": 0,
            "conditional_logic": [
                [
                    {
                        "field": "field_5d132773bd772",
                        "operator": "!=",
                        "value": "1"
                    }
                ]
            ],
            "wrapper": {
                "width": "",
                "class": "billing",
                "id": ""
            },
            "default_value": "",
            "placeholder": "",
            "prepend": "",
            "append": ""
        }
    ],
    "location": [
        [
            {
                "param": "post_type",
                "operator": "==",
                "value": "job_listing"
            }
        ]
    ],
    "menu_order": 2,
    "position": "normal",
    "style": "default",
    "label_placement": "top",
    "instruction_placement": "label",
    "hide_on_screen": [
        "the_content"
    ],
    "active": 0,
    "description": "",
    "modified": 1562299601
}